<?xml version="1.0" encoding="UTF-8"?>
<session version="1.0">
<refactoring accessors="true" comment="Delete element from project &apos;StudentWebProject&apos;&#x0D;&#x0A;- Original project: &apos;StudentWebProject&apos;&#x0D;&#x0A;- Original element: &apos;com.web.Student.java&apos;" description="Delete element" element1="/src&lt;com.web{Student.java" elements="1" flags="589830" id="org.eclipse.jdt.ui.delete" resources="0" stamp="1708238369304" subPackages="false" version="1.0"/>
</session>