<?xml version="1.0" encoding="UTF-8"?>
<session version="1.0">
<refactoring comment="Delete resource &apos;Product&apos;" deleteContents="false" description="Delete resource &apos;Product&apos;" element1="/Product" flags="7" id="org.eclipse.ltk.core.refactoring.delete.resources" resources="1" stamp="1709016435477"/>
</session>